{
	"info": {
		"_postman_id": "c127786a-17cd-4f80-9398-1de328f3a7f9",
		"name": "fms",
		"schema": "https://schema.getpostman.com/json/collection/v2.1.0/collection.json",
		"_exporter_id": "1266796"
	},
	"item": [
		{
			"name": "Get cars",
			"request": {
				"method": "GET",
				"header": [],
				"url": {
					"raw": "localhost:3000/cars",
					"host": [
						"localhost"
					],
					"port": "3000",
					"path": [
						"cars"
					]
				}
			},
			"response": []
		},
		{
			"name": "Post new car",
			"request": {
				"method": "POST",
				"header": [],
				"body": {
					"mode": "raw",
					"raw": "{\r\n    \"ref\": \"BB7779NN\",\r\n    \"model\": \"Hunday Tucson\",\r\n    \"year\": \"2017\",\r\n    \"maxSpeed\": 200\r\n}",
					"options": {
						"raw": {
							"language": "json"
						}
					}
				},
				"url": {
					"raw": "localhost:3000/cars",
					"host": [
						"localhost"
					],
					"port": "3000",
					"path": [
						"cars"
					]
				}
			},
			"response": []
		},
		{
			"name": "Assign driver to car",
			"request": {
				"method": "POST",
				"header": [],
				"body": {
					"mode": "raw",
					"raw": "{\r\n    \"driver\": \"6415a8b502b5ad35ed3f4ffe\"\r\n}",
					"options": {
						"raw": {
							"language": "json"
						}
					}
				},
				"url": {
					"raw": "localhost:3000/cars/6415a89802b5ad35ed3f4ff6/assign",
					"host": [
						"localhost"
					],
					"port": "3000",
					"path": [
						"cars",
						"6415a89802b5ad35ed3f4ff6",
						"assign"
					]
				}
			},
			"response": []
		},
		{
			"name": "Get drivers",
			"request": {
				"method": "GET",
				"header": [],
				"url": {
					"raw": "localhost:3000/drivers",
					"host": [
						"localhost"
					],
					"port": "3000",
					"path": [
						"drivers"
					]
				}
			},
			"response": []
		},
		{
			"name": "Add new driver",
			"request": {
				"method": "POST",
				"header": [],
				"body": {
					"mode": "raw",
					"raw": "{\r\n    \"firstName\": \"Michael\",\r\n    \"lastName\": \"Schumacher\",\r\n    \"risk\": 100,\r\n    \"licenseId\": \"NN666666\"\r\n}",
					"options": {
						"raw": {
							"language": "json"
						}
					}
				},
				"url": {
					"raw": "localhost:3000/drivers",
					"host": [
						"localhost"
					],
					"port": "3000",
					"path": [
						"drivers"
					]
				}
			},
			"response": []
		},
		{
			"name": "Get trips",
			"protocolProfileBehavior": {
				"disableBodyPruning": true
			},
			"request": {
				"method": "GET",
				"header": [],
				"body": {
					"mode": "raw",
					"raw": "{\r\n    \"status\": \"finished\",\r\n    \"finished\": \"2023-03-18T16:51:49.406Z\"\r\n}",
					"options": {
						"raw": {
							"language": "json"
						}
					}
				},
				"url": {
					"raw": "localhost:3000/trips/",
					"host": [
						"localhost"
					],
					"port": "3000",
					"path": [
						"trips",
						""
					]
				}
			},
			"response": []
		},
		{
			"name": "Delete trip",
			"request": {
				"method": "DELETE",
				"header": [],
				"url": {
					"raw": "localhost:3000/trips/6416116c1884192f5d4a73f2",
					"host": [
						"localhost"
					],
					"port": "3000",
					"path": [
						"trips",
						"6416116c1884192f5d4a73f2"
					]
				}
			},
			"response": []
		},
		{
			"name": "Add new trip",
			"request": {
				"method": "POST",
				"header": [],
				"body": {
					"mode": "raw",
					"raw": "{\r\n    \"origin\": {\r\n        \"latitude\": 50.450901864781564,\r\n            \"longitude\": 30.441473722598925\r\n    },\r\n    \"destination\": {\r\n        \"latitude\": 50.44504883995267,\r\n            \"longitude\": 30.544483516385647\r\n    },\r\n    \"car\": \"6415a8a302b5ad35ed3f4ffa\"\r\n\r\n}",
					"options": {
						"raw": {
							"language": "json"
						}
					}
				},
				"url": {
					"raw": "localhost:3000/trips",
					"host": [
						"localhost"
					],
					"port": "3000",
					"path": [
						"trips"
					]
				}
			},
			"response": []
		},
		{
			"name": "Get penalties",
			"protocolProfileBehavior": {
				"disableBodyPruning": true
			},
			"request": {
				"method": "GET",
				"header": [],
				"body": {
					"mode": "raw",
					"raw": "{\r\n    \"status\": \"finished\",\r\n    \"finished\": \"2023-03-18T16:51:49.406Z\"\r\n}",
					"options": {
						"raw": {
							"language": "json"
						}
					}
				},
				"url": {
					"raw": "localhost:3000/trips/",
					"host": [
						"localhost"
					],
					"port": "3000",
					"path": [
						"trips",
						""
					]
				}
			},
			"response": []
		}
	]
}